{
  "#spec": "service-manifest-src@1",
  "template": "builtin-lxc-docker",
  "docker_name": "registry.gitlab.com/highercomve/pvsm",
  "docker_tag": "pv",
  "docker_source": "remote,local",
  "docker_platform": "linux/arm/v6",
  "args": {
    "PV_GROUP": "platform",
    "PV_RESTART_POLICY": "system",
    "PV_ROLES": [
      "mgmt"
    ],
    "PV_STATUS_GOAL": "STARTED",
    "PV_SECURITY_WITH_STORAGE": "yes"
  }
}
